{
  "name": "Koapp Push Notifications",
  "identifier": "koapushnotifications",
  "description": {
    "es-ES": "",
    "en-US": ""
  },
  "documentation": {
    "es-ES": "services/koapushnotifications/docs/es_ES.md",
    "en-US": "services/koapushnotifications/docs/en_US.md"
  },
  "descriptionShort": {
    "es-ES": "",
    "en-US": ""
  },
  "icon": "room",
  "type": "A",
  "version": "1.0.7",
  "author": "KingOfApp",
  "category": [
    "others"
  ],
  "price": 0,
  "subscription": false,
  "canContain": false,
  "platforms": [
    "android",
    "ios",
    "windows"
  ],
  "vendor": {
    "koapushnotifications": "services/koapushnotifications/service.js"
  },
  "scope": {
    "pushServer": "http://34.214.156.99",
    "accessToken": "",
    "androidFile": "",
    "iosFile": ""
  },
  "configChanges":[
    {
			"type": "xml",
			"path": "widget/platform$name=ios",
			"data": "<preference name='WKWebViewOnly' value='true' />"
		},
    {
			"type": "xml",
			"path": "widget/platform$name=ios",
			"data": "<feature name='CDVWKWebViewEngine'>         <param name='ios-package' value='CDVWKWebViewEngine' />     </feature>"
		},
    {
			"type": "xml",
			"path": "widget/platform$name=ios",
			"data": "<preference name='CordovaWebViewEngine' value='CDVWKWebViewEngine' />"
		}
  ],
  "deps": [
    "cordova-plugin-fcm-with-dependecy-updated@6.4.3",
    "cordova-plugin-dialogs",
    "cordova-android-play-services-gradle-release  --variable play-services-location=17.0.0",
    "cordova-android-firebase-gradle-release  --variable firebase-core=17.0.0 --variable firebase-messaging=19.0.0"
  ],
  "libs": [],
  "config": [
    {
      "key": "accessToken",
      "type": "input",
      "templateOptions": {
        "label": "Access Token",
        "required": true,
        "description": "Access token from King of App push System",
        "placeholder": "Example: 8c75b6effe8d7abf4328c5b95e6dfd0a",
        "pattern": "([0-9A-Za-z]{32})"
      }
    },
    {
      "key": "androidFile",
      "type": "textarea",
      "templateOptions": {
        "label": "google-services.json",
        "placeholder": "paste here the content of your google-services.json file obtained in firebase",
        "rows": 15,
        "grow": true,
        "required": true
      }
    },
    {
      "key": "iosFile",
      "type": "textarea",
      "templateOptions": {
        "label": "GoogleService-Info.plist",
        "placeholder": "paste here the content of your GoogleService-Info.plist file obtained in firebase",
        "rows": 15,
        "grow": true,
        "required": true
      }
    }
  ],
  "showOn": {
    "menu": true,
    "market": true,
    "dragDrop": true
  },
  "images": {
    "list": "services/koapushnotifications/images/list.png",
    "screenshots": [],
    "popover": "services/koapushnotifications/images/popover.png",
    "banner": "services/koapushnotifications/images/banner.png",
    "logo": "services/koapushnotifications/images/logo.png"
  }
}